Housing prediction
…
HANDLING MISSING VALUES,GROUPING RELATED VARIABLES, CONVERTING CLEAR
ORDINAL VALUES TO ORDINAL NUMERIC VALUES, AND CONVERTING NON-ORDINAL
VALUES TO FACTORS

pool variables

all%>%
  mutate(PoolQC = ifelse(is.na(PoolQC), "none",PoolQC))

## # A tibble: 2,919 × 80
##    MSSubClass MSZoning LotFrontage LotArea Street Alley LotShape LandContour
##         <dbl> <chr>          <dbl>   <dbl> <chr>  <chr> <chr>    <chr>      
##  1         60 RL                65    8450 Pave   <NA>  Reg      Lvl        
##  2         20 RL                80    9600 Pave   <NA>  Reg      Lvl        
##  3         60 RL                68   11250 Pave   <NA>  IR1      Lvl        
##  4         70 RL                60    9550 Pave   <NA>  IR1      Lvl        
##  5         60 RL                84   14260 Pave   <NA>  IR1      Lvl        
##  6         50 RL                85   14115 Pave   <NA>  IR1      Lvl        
##  7         20 RL                75   10084 Pave   <NA>  Reg      Lvl        
##  8         60 RL                NA   10382 Pave   <NA>  IR1      Lvl        
##  9         50 RM                51    6120 Pave   <NA>  Reg      Lvl        
## 10        190 RL                50    7420 Pave   <NA>  Reg      Lvl        
## # ℹ 2,909 more rows
## # ℹ 72 more variables: Utilities <chr>, LotConfig <chr>, LandSlope <chr>,
## #   Neighborhood <chr>, Condition1 <chr>, Condition2 <chr>, BldgType <chr>,
## #   HouseStyle <chr>, OverallQual <dbl>, OverallCond <dbl>, YearBuilt <dbl>,
## #   YearRemodAdd <dbl>, RoofStyle <chr>, RoofMatl <chr>, Exterior1st <chr>,
## #   Exterior2nd <chr>, MasVnrType <chr>, MasVnrArea <dbl>, ExterQual <chr>,
## #   ExterCond <chr>, Foundation <chr>, BsmtQual <chr>, BsmtCond <chr>, …
…
